{"pagination":{"total":124258,"limit":3,"offset":0,"total_pages":41420,"current_page":1,"next_url":"https:\/\/api.artic.edu\/api\/v1\/artworks?page=2&fields=id&limit=3"},"data":[{"id":3752},{"id":6010},{"id":3816}],"info":{"license_text":"The `description` field in this response is licensed under a Creative Commons Attribution 4.0 Generic License (CC-By) and the Terms and Conditions of artic.edu. All other data in this response is licensed under a Creative Commons Zero (CC0) 1.0 designation and the Terms and Conditions of artic.edu.","license_links":["https:\/\/creativecommons.org\/publicdomain\/zero\/1.0\/","https:\/\/www.artic.edu\/terms"],"version":"1.10"},"config":{"iiif_url":"https:\/\/www.artic.edu\/iiif\/2","website_url":"http:\/\/www.artic.edu"}}
